SEMAFORO_CRUCE/simulation/qsim/SEMAFORO.msim.vcd
$comment
	File created using the following command:
		vcd file SEMAFORO.msim.vcd -direction
$end
$date
	Fri May 08 18:43:14 2020
$end
$version
	ModelSim Version 10.1d
$end
$timescale
	1ps
$end
$scope module SEMAFORO_vlg_vec_tst $end
$var reg 1 ! clk_1s $end
$var reg 1 " reset $end
$var reg 1 # sensor $end
$var wire 1 $ carretera [2] $end
$var wire 1 % carretera [1] $end
$var wire 1 & carretera [0] $end
$var wire 1 ' rural [2] $end
$var wire 1 ( rural [1] $end
$var wire 1 ) rural [0] $end
$var wire 1 * sampler $end
$scope module i1 $end
$var wire 1 + gnd $end
$var wire 1 , vcc $end
$var wire 1 - unknown $end
$var tri1 1 . devclrn $end
$var tri1 1 / devpor $end
$var tri1 1 0 devoe $end
$var wire 1 1 clk_1s~combout $end
$var wire 1 2 sensor~combout $end
$var wire 1 3 cuenta_tiempo:cuenta[2]~regout $end
$var wire 1 4 Add0~5_combout $end
$var wire 1 5 cuenta_tiempo:cuenta[0]~regout $end
$var wire 1 6 Add0~7 $end
$var wire 1 7 Add0~7COUT1_31 $end
$var wire 1 8 Add0~10_combout $end
$var wire 1 9 cuenta_tiempo:cuenta[1]~regout $end
$var wire 1 : Add0~12 $end
$var wire 1 ; Add0~12COUT1_33 $end
$var wire 1 < Add0~20_combout $end
$var wire 1 = cuenta_tiempo:cuenta[3]~regout $end
$var wire 1 > Add0~22 $end
$var wire 1 ? Add0~22COUT1_35 $end
$var wire 1 @ Add0~0_combout $end
$var wire 1 A fin_largo~8_combout $end
$var wire 1 B fin_corto~regout $end
$var wire 1 C reset~combout $end
$var wire 1 D estado_presente.camiamarillo~regout $end
$var wire 1 E Selector12~0_combout $end
$var wire 1 F Selector8~0_combout $end
$var wire 1 G estado_presente.espera~regout $end
$var wire 1 H Selector6~0_combout $end
$var wire 1 I reset_cuenta~combout $end
$var wire 1 J cuenta_tiempo:cuenta[4]~regout $end
$var wire 1 K Add0~2 $end
$var wire 1 L Add0~2COUT1_37 $end
$var wire 1 M Add0~15_combout $end
$var wire 1 N fin_largo~regout $end
$var wire 1 O estado_presente.inicial~regout $end
$var wire 1 P estado_presente.carramarillo~regout $end
$var wire 1 Q estado_presente.camiverde~regout $end
$var wire 1 R rural[0]$latch~combout $end
$var wire 1 S rural~0_combout $end
$var wire 1 T rural[1]$latch~combout $end
$var wire 1 U Selector5~0_combout $end
$var wire 1 V rural[2]$latch~combout $end
$var wire 1 W carretera[0]$latch~combout $end
$var wire 1 X Selector9~0_combout $end
$var wire 1 Y carretera[1]$latch~combout $end
$var wire 1 Z Selector10~0_combout $end
$var wire 1 [ carretera[2]$latch~combout $end
$upscope $end
$upscope $end
$enddefinitions $end
#0
$dumpvars
0!
0"
0#
1&
0%
0$
0)
0(
1'
x*
0+
1,
x-
1.
1/
10
01
02
03
14
05
06
07
08
09
1:
1;
0<
0=
0>
0?
0@
0A
0B
0C
0D
1E
1F
0G
1H
1I
0J
1K
1L
0M
0N
0O
0P
0Q
0R
0S
0T
1U
1V
1W
0X
0Y
0Z
0[
$end
#5000
1!
11
0*
#10000
0!
01
1*
#15000
1!
11
0*
#20000
0!
01
1*
#25000
1!
11
0*
#30000
0!
01
1*
#35000
1!
11
0*
#40000
0!
01
1*
#45000
1!
11
0*
#50000
0!
01
1*
#55000
1!
11
0*
#60000
0!
01
1*
#65000
1!
11
0*
#70000
0!
01
1*
#75000
1!
11
0*
#80000
1#
0!
12
01
1*
0F
0H
#85000
1!
11
0*
1P
1O
1X
1S
0U
1F
1Y
0W
1H
0V
1T
1%
0&
0'
1(
#90000
0!
01
1*
#95000
1!
11
0*
1Q
0P
1Z
1R
0X
0S
0E
1[
0Y
0T
0I
1)
1$
0%
0(
#100000
0!
01
1*
#105000
1!
11
0*
15
17
16
04
18
#110000
0!
01
1*
#115000
1!
11
0*
19
05
0;
0:
08
07
06
14
1<
1;
1:
18
0<
#120000
0#
0!
02
01
1*
#125000
1!
11
0*
15
17
16
04
0;
0:
08
1<
#130000
0!
01
1*
#135000
1!
11
0*
09
05
13
1;
1:
18
07
06
14
1?
1>
0<
0?
0>
1<
08
1@
0@
1A
0A
#140000
0!
01
1*
#145000
1!
11
0*
15
17
16
04
18
#150000
0!
01
1*
#155000
1!
11
0*
19
05
0;
0:
08
07
06
14
1?
1>
0<
1;
1:
18
1@
0?
0>
1<
0@
#160000
0!
01
1*
#165000
1!
11
0*
15
17
16
04
0;
0:
08
1?
1>
0<
1@
#170000
0!
01
1*
#175000
1!
11
0*
1=
09
05
03
0L
0K
0@
1;
1:
18
07
06
14
0?
0>
1<
1M
0<
08
1L
1K
1@
1A
0M
#180000
0!
01
1*
#185000
1!
11
0*
1B
15
0F
17
16
04
0H
18
0A
#190000
0!
01
1*
#195000
1!
11
0*
0Q
1D
0B
19
05
1F
1S
1E
0;
0:
08
07
06
14
1H
1<
1A
1;
1:
18
1T
0R
1I
0<
0A
1(
0)
#200000
0!
01
1*
#205000
1!
11
0*
1G
0D
0=
09
1U
0S
0E
0@
08
1V
0T
0I
1'
0(
#210000
0!
01
1*
#215000
1!
11
0*
15
17
16
04
18
#220000
0!
01
1*
#225000
1!
11
0*
19
05
0;
0:
08
07
06
14
1<
1;
1:
18
0<
#230000
0!
01
1*
#235000
1!
11
0*
15
17
16
04
0;
0:
08
1<
#240000
0!
01
1*
#245000
1!
11
0*
09
05
13
1;
1:
18
07
06
14
1?
1>
0<
0?
0>
1<
08
1@
0@
1A
0A
#250000
0!
01
1*
#255000
1!
11
0*
15
17
16
04
18
#260000
0!
01
1*
#265000
1!
11
0*
19
05
0;
0:
08
07
06
14
1?
1>
0<
1;
1:
18
1@
0?
0>
1<
0@
#270000
0!
01
1*
#275000
1!
11
0*
15
17
16
04
0;
0:
08
1?
1>
0<
1@
#280000
0!
01
1*
#285000
1!
11
0*
1=
09
05
03
0L
0K
0@
1;
1:
18
07
06
14
0?
0>
1<
1M
0<
08
1L
1K
1@
1A
0M
#290000
0!
01
1*
#295000
1!
11
0*
1B
15
17
16
04
18
0A
#300000
0!
01
1*
#305000
1!
11
0*
0B
19
05
0;
0:
08
07
06
14
1<
1A
1;
1:
18
0<
0A
#310000
0!
01
1*
#315000
1!
11
0*
15
17
16
04
0;
0:
08
1<
#320000
0!
01
1*
#325000
1!
11
0*
09
05
13
1;
1:
18
07
06
14
1?
1>
0<
0?
0>
1<
08
0L
0K
0@
1L
1K
1@
1M
0M
1A
#330000
0!
01
1*
#335000
1!
11
0*
15
17
16
04
18
0A
#340000
0!
01
1*
#345000
1!
11
0*
19
05
0;
0:
08
07
06
14
1?
1>
0<
1A
1;
1:
18
0L
0K
0@
0?
0>
1<
0A
1M
1L
1K
1@
0M
#350000
1"
0!
1C
01
1*
0O
0G
1W
1E
0Z
1I
0[
1&
0$
#355000
1!
11
0*
0=
09
03
0@
08
0<
#360000
0!
01
1*
#365000
1!
11
0*
#370000
0"
0!
0C
01
1*
#375000
1!
11
0*
#380000
0!
01
1*
#385000
1!
11
0*
#390000
0!
01
1*
#395000
1!
11
0*
#400000
0!
01
1*
#405000
1!
11
0*
#410000
0!
01
1*
#415000
1!
11
0*
#420000
0!
01
1*
#425000
1!
11
0*
#430000
0!
01
1*
#435000
1!
11
0*
#440000
0!
01
1*
#445000
1!
11
0*
#450000
0!
01
1*
#455000
1!
11
0*
#460000
0!
01
1*
#465000
1!
11
0*
#470000
0!
01
1*
#475000
1!
11
0*
#480000
0!
01
1*
#485000
1!
11
0*
#490000
0!
01
1*
#495000
1!
11
0*
#500000
0!
01
1*
#505000
1!
11
0*
#510000
0!
01
1*
#515000
1!
11
0*
#520000
0!
01
1*
#525000
1!
11
0*
#530000
0!
01
1*
#535000
1!
11
0*
#540000
0!
01
1*
#545000
1!
11
0*
#550000
0!
01
1*
#555000
1!
11
0*
#560000
0!
01
1*
#565000
1!
11
0*
#570000
0!
01
1*
#575000
1!
11
0*
#580000
0!
01
1*
#585000
1!
11
0*
#590000
0!
01
1*
#595000
1!
11
0*
#600000
0!
01
1*
#605000
1!
11
0*
#610000
0!
01
1*
#615000
1!
11
0*
#620000
0!
01
1*
#625000
1!
11
0*
#630000
0!
01
1*
#635000
1!
11
0*
#640000
0!
01
1*
#645000
1!
11
0*
#650000
0!
01
1*
#655000
1!
11
0*
#660000
0!
01
1*
#665000
1!
11
0*
#670000
0!
01
1*
#675000
1!
11
0*
#680000
0!
01
1*
#685000
1!
11
0*
#690000
0!
01
1*
#695000
1!
11
0*
#700000
0!
01
1*
#705000
1!
11
0*
#710000
0!
01
1*
#715000
1!
11
0*
#720000
0!
01
1*
#725000
1!
11
0*
#730000
0!
01
1*
#735000
1!
11
0*
#740000
0!
01
1*
#745000
1!
11
0*
#750000
0!
01
1*
#755000
1!
11
0*
#760000
0!
01
1*
#765000
1!
11
0*
#770000
0!
01
1*
#775000
1!
11
0*
#780000
0!
01
1*
#785000
1!
11
0*
#790000
0!
01
1*
#795000
1!
11
0*
#800000
0!
01
1*
#805000
1!
11
0*
#810000
0!
01
1*
#815000
1!
11
0*
#820000
0!
01
1*
#825000
1!
11
0*
#830000
0!
01
1*
#835000
1!
11
0*
#840000
0!
01
1*
#845000
1!
11
0*
#850000
0!
01
1*
#855000
1!
11
0*
#860000
0!
01
1*
#865000
1!
11
0*
#870000
0!
01
1*
#875000
1!
11
0*
#880000
0!
01
1*
#885000
1!
11
0*
#890000
0!
01
1*
#895000
1!
11
0*
#900000
0!
01
1*
#905000
1!
11
0*
#910000
0!
01
1*
#915000
1!
11
0*
#920000
0!
01
1*
#925000
1!
11
0*
#930000
0!
01
1*
#935000
1!
11
0*
#940000
0!
01
1*
#945000
1!
11
0*
#950000
0!
01
1*
#955000
1!
11
0*
#960000
0!
01
1*
#965000
1!
11
0*
#970000
0!
01
1*
#975000
1!
11
0*
#980000
0!
01
1*
#985000
1!
11
0*
#990000
0!
01
1*
#995000
1!
11
0*
